…
Let us create a new attribute for visualization purposes, `strength_range`: 


``` r
new_concrete <- concrete %>%
  mutate(strength_range = cut(Concrete_compressive_strength, 
                              breaks = quantile(Concrete_compressive_strength, 
                                                probs = seq(0, 1, 0.2))))
new_concrete
```

```
## # A tibble: 1,030 × 10
##    Cement Blast_Furnace_Slag Fly_Ash Water Superplasticizer Coarse_Aggregate
##     <dbl>              <dbl>   <dbl> <dbl>            <dbl>            <dbl>
##  1   540                  0        0   162              2.5            1040 
##  2   540                  0        0   162              2.5            1055 
##  3   332.               142.       0   228              0               932 
##  4   332.               142.       0   228              0               932 
##  5   199.               132.       0   192              0               978.
##  6   266                114        0   228              0               932 
##  7   380                 95        0   228              0               932 
##  8   380                 95        0   228              0               932 
##  9   266                114        0   228              0               932 
## 10   475                  0        0   228              0               932 
## # ℹ 1,020 more rows
## # ℹ 4 more variables: Fine_Aggregate <dbl>, Age <dbl>,
## #   Concrete_compressive_strength <dbl>, strength_range <fct>
```
…
